4bitcarryskipadder.vcd
$date
	Sun Jan 18 15:56:03 2026
$end
$version
	Icarus Verilog
$end
$timescale
	1s
$end
$scope module fulladder_4bit_testbench $end
$var wire 4 ! sum [3:0] $end
$var wire 4 " p [3:0] $end
$var wire 1 # out $end
$var wire 1 $ cout1 $end
$var wire 1 % cout $end
$var reg 4 & a [3:0] $end
$var reg 4 ' b [3:0] $end
$var reg 1 ( cin $end
$scope module uut $end
$var wire 4 ) a [3:0] $end
$var wire 4 * b [3:0] $end
$var wire 1 ( cin $end
$var wire 4 + sum [3:0] $end
$var wire 4 , p [3:0] $end
$var wire 1 # out $end
$var wire 1 $ cout1 $end
$var wire 1 % cout $end
$var wire 1 - c3 $end
$var wire 1 . c2 $end
$var wire 1 / c1 $end
$scope module FA0 $end
$var wire 1 0 a $end
$var wire 1 1 b $end
$var wire 1 ( cin $end
$var wire 1 / cout $end
$var wire 1 2 p $end
$var wire 1 3 sum $end
$upscope $end
$scope module FA1 $end
$var wire 1 4 a $end
$var wire 1 5 b $end
$var wire 1 / cin $end
$var wire 1 . cout $end
$var wire 1 6 p $end
$var wire 1 7 sum $end
$upscope $end
$scope module FA2 $end
$var wire 1 8 a $end
$var wire 1 9 b $end
$var wire 1 . cin $end
$var wire 1 - cout $end
$var wire 1 : p $end
$var wire 1 ; sum $end
$upscope $end
$scope module FA3 $end
$var wire 1 < a $end
$var wire 1 = b $end
$var wire 1 - cin $end
$var wire 1 % cout $end
$var wire 1 > p $end
$var wire 1 ? sum $end
$upscope $end
$upscope $end
$upscope $end
$enddefinitions $end
$comment Show the parameter values. $end
$dumpall
$end
#0
$dumpvars
0?
0>
0=
0<
0;
0:
09
08
07
06
05
04
03
02
01
00
0/
0.
0-
b0 ,
b0 +
b0 *
b0 )
0(
b0 '
b0 &
0%
0$
0#
b0 "
b0 !
$end
#10
b1 !
b1 +
13
1(
#20
1?
1-
1.
0;
1/
07
1:
b110 "
b110 ,
16
b1000 !
b1000 +
03
11
19
10
14
0(
b101 '
b101 *
b11 &
b11 )
#30
b1001 !
b1001 +
13
1(
#40
1$
1%
b1 !
b1 +
0?
b1110 "
b1110 ,
1>
09
18
1<
b1 '
b1 *
b1111 &
b1111 )
#50
b0 !
b0 +
03
0(
#60
0%
1?
0-
1;
0.
17
b1111 !
b1111 +
13
0/
0$
1#
b1111 "
b1111 ,
12
19
00
08
b101 '
b101 *
b1010 &
b1010 )
#70
1%
0?
1-
0;
1.
07
1/
1$
b0 !
b0 +
03
1(
#80
17
1?
13
b1111 !
b1111 +
1;
06
0>
02
0#
b0 "
b0 ,
0:
15
1=
10
18
b1111 '
b1111 *
b1111 &
b1111 )
#90
b1110 !
b1110 +
03
0(
